------------------------------------------------------------------------

Prediction parameters:

------------------------------------------------------------------------

Branch prediction type: Tournament

BHT size (entries): 32

Global history register size: 5

Private history register size: 3

------------------------------------------------------------------------

------------------------------------------------------------------------

Simulation results:

------------------------------------------------------------------------

Number of branches: 16416279

Number of correct predictions of taken branches: 3009118

Number of incorrect predictions of taken branches: 3202477

Number of correct predictions of not-taken branches: 8268910

Number of incorrect predictions of not-taken branches: 1935774

Percentage of correct predictions: 68.70

------------------------------------------------------------------------
